{
  "EDITOR_STATE": {
    "allProjectFiles": {
      "161287bd-c9af-4c86-bae9-a4970d55d4da": {
        "id": "161287bd-c9af-4c86-bae9-a4970d55d4da",
        "parent": null,
        "name": "SMSGateway.js",
        "type": "JS_LAMBDA",
        "isDirectory": false,
        "children": [],
        "isRemovable": true,
        "filePath": "SMSGateway.js",
        "cursor": {
          "lineNumber": 6,
          "column": 3
        },
        "config": {
          "runtime": "nodejs10.x",
          "handler": "handler",
          "timeout": 60,
          "memory": 128,
          "layers": [],
          "name": "SMSGateway"
        },
        "triggers": [
          {
            "resourceName": "apigeuWest1SMSGatewaysendSMSpost",
            "config": {}
          }
        ]
      },
      "d78a7c91-1722-417c-b189-ce31a9ad60d4": {
        "id": "d78a7c91-1722-417c-b189-ce31a9ad60d4",
        "parent": null,
        "name": "sendEmail.js",
        "type": "JS_LAMBDA",
        "isDirectory": false,
        "children": [],
        "isRemovable": true,
        "filePath": "sendEmail.js",
        "cursor": {
          "lineNumber": 12,
          "column": 25
        },
        "config": {
          "runtime": "nodejs10.x",
          "handler": "handler",
          "timeout": 60,
          "memory": 128,
          "layers": [],
          "name": "sendEmail"
        },
        "triggers": [
          {
            "resourceName": "apigeuWest1sendEmailsendEmailpost",
            "config": {}
          }
        ]
      }
    },
    "openFiles": [
      "161287bd-c9af-4c86-bae9-a4970d55d4da",
      "d78a7c91-1722-417c-b189-ce31a9ad60d4"
    ],
    "currentFileId": "d78a7c91-1722-417c-b189-ce31a9ad60d4",
    "resources": {
      "apigeuWest1SMSGatewaysendSMSpost": {
        "name": "apigeuWest1SMSGatewaysendSMSpost",
        "type": "API_GATEWAY",
        "config": {
          "selectedRegion": "eu-west-1",
          "apiType": 1,
          "apiMode": 0,
          "apiName": "SMSGateway",
          "endpointType": "EDGE",
          "resourceMode": 0,
          "resourceName": "sendSMS",
          "resourcePath": "/sendSMS",
          "restMethod": "POST",
          "proxyIntegration": false,
          "enableCORS": true,
          "stageMode": 0,
          "stageName": "stg",
          "mode": 0
        }
      },
      "snsDirectSMSResource": {
        "name": "snsDirectSMSResource",
        "type": "SNS",
        "config": {
          "snsType": 1,
          "numbers": [
            "@[receiver]",
            "@{receiver}",
            "+972528323609"
          ]
        }
      },
      "ses-no-reply@yourpaymentservices.com": {
        "name": "ses-no-reply@yourpaymentservices.com",
        "type": "SES",
        "config": {
          "selectedIdentity": "no-reply@yourpaymentservices.com",
          "projectRegion": "eu-west-1"
        }
      },
      "apigeuWest1sendEmailsendEmailpost": {
        "name": "apigeuWest1sendEmailsendEmailpost",
        "type": "API_GATEWAY",
        "config": {
          "selectedRegion": "eu-west-1",
          "apiType": 1,
          "apiMode": 0,
          "apiName": "sendEmail",
          "endpointType": "EDGE",
          "resourceMode": 0,
          "resourceName": "sendEmail",
          "resourcePath": "/sendEmail",
          "restMethod": "POST",
          "proxyIntegration": false,
          "enableCORS": true,
          "stageMode": 0,
          "stageName": "stg",
          "mode": 0
        }
      }
    },
    "customTemplate": {
      "syntax": "JSON",
      "overrideDefault": false,
      "dialect": "CloudFormation",
      "definitions": null
    },
    "envVariables": [
      {
        "lambdaId": "all",
        "varKey": "SIGMA_AWS_ACC_ID",
        "varValue": null,
        "shouldPersist": false,
        "displayOnly": false,
        "editable": false
      }
    ],
    "packageJSON": {
      "dependencies": {
        "aws-sdk": {
          "name": "aws-sdk",
          "language": "nodejs",
          "version": "2.644.0",
          "dev": true,
          "notRemovable": false
        }
      }
    }
  },
  "PROJECT_META": {
    "sigmaVersion": "1.4.1.1",
    "projectName": "SMSGateway",
    "projectDescription": "create API gateway to send sms",
    "projectVersion": "1.0.0",
    "projectRegion": "eu-west-1",
    "platform": "AWS",
    "language": "nodejs",
    "platformRegions": {},
    "lastSave": 1596297843911
  },
  "VCS_STATE": {
    "provider": "GitLab",
    "repo": {
      "name": "smsgateway",
      "url": "https://gitlab.com/jbellish/smsgateway"
    }
  }
}